ModuleType PHYSICAL
ModuleName PA10
IncludeFile inc.h
VariableFile var.c
InitialisationFile init.c
CalculationFile reinit.c
EndFile end.c
TemporalConstraints NONDEFINED
NbrPortDriver 2
PortName U
PortId 1
PortType INPUT
VariableName U
VariableType VAR_DOUBLE
VariableRows 1
VariableColumns 7
CallFunction drvcall.c
PortName X
PortId 2
PortType OUTPUT
VariableName X
VariableType VAR_DOUBLE
VariableRows 1
VariableColumns 14
CallFunction drvcall.c
NbrPortEvent 1
PortName Joint_Limit
PortId 3
PortType OUTPUT
EventName Joint_Limit
EventType INNEROUTPUT
