ModuleType ALGORITHMICAL
ModuleName error
IncludeFile inc.h
VariableFile var.c
InitialisationFile init.c
CalculationFile compute.c
EndFile end.c
TemporalConstraints NONDEFINED
NbrPortVariable 3
PortName posd
PortId 1
PortType INPUT
VariableName posd
VariableType VAR_DOUBLE
VariableRows 1
VariableColumns 2
Filtre 0
PortName errpos
PortId 2
PortType OUTPUT
VariableName errpos
VariableType VAR_DOUBLE
VariableRows 1
VariableColumns 2
Filtre 0
PortName posc
PortId 3
PortType INPUT
VariableName posc
VariableType VAR_DOUBLE
VariableRows 1
VariableColumns 2
Filtre 0
NbrPortEvent 1
PortName errtrack
PortId 5
PortType OUTPUT
EventName errtrack
EventType INNEROUTPUT
NbrPortParam 0
