RobotTaskName JoystickDrivingDiff

InputParam 0
OutputParam 0
Modules 4

ModuleFileId Security
ModuleId 4
Library USER
ParamNumber 0
TemporalConstraints DEFINED
ModuleTask mt0
SynchronizationType CLOCKSOURCEPERIODIC
PeriodTime 500
PeriodTimeUnits M_SEC
ExecutionTime 0
ExecutionTimeUnits M_SEC
CPU cpu0
Priority 5

ModuleFileId JoyToVelDiff
ModuleId 6
Library USER
ParamNumber 0
TemporalConstraints DEFINED
ModuleTask mt0
SynchronizationType CLOCKSOURCEPERIODIC
PeriodTime 100
PeriodTimeUnits M_SEC
ExecutionTime 0
ExecutionTimeUnits M_SEC
CPU cpu0
Priority 5

ModuleFileId Cycab
ModuleId 2
Library USER
TemporalConstraints NONDEFINED

ModuleFileId jdAtr
ModuleId 5
Library USER
TemporalConstraints NONDEFINED

Connexions 10
1 6 10 1 2 2 
DRIVER

2 6 9 1 2 1 
DRIVER

3 6 8 1 5 6 
EVENT

4 4 3 1 5 2 
EVENT

5 4 4 1 5 3 
EVENT

6 2 5 1 6 1 
DRIVER

7 2 7 1 4 1 
DRIVER

8 2 9 1 5 4 
EVENT

9 2 6 1 5 5 
EVENT

10 4 2 1 5 1 
EVENT


