ModuleType PHYSICAL
ModuleName Excavator
IncludeFile inc.h
VariableFile var.c
InitialisationFile init.c
CalculationFile reinit.c
EndFile end.c
TemporalConstraints NONDEFINED
NbrPortDriver 3
PortName Y
PortId 1
PortType OUTPUT
VariableName Y
VariableType VAR_DOUBLE
VariableRows 1
VariableColumns 8
CallFunction get_state.c
PortName Gamma
PortId 2
PortType INPUT
VariableName Gamma
VariableType VAR_DOUBLE
VariableRows 1
VariableColumns 4
CallFunction put_cmd.c
PortName T
PortId 4
PortType INPUT
VariableName T
VariableType VAR_DOUBLE
VariableRows 1
VariableColumns 2
CallFunction time.c
NbrPortEvent 0
