RobotTaskName Tld

InputParam 0
OutputParam 0
Modules 5

ModuleFileId Gene_Traj_SE3
ModuleId 3
Library USER
ParamNumber 3
Param 2 PARAM_CTTYPE_VALUE 
ValueRows 1
ValueCol 2
ValueType VAR_DOUBLE
Value 0 0 
Param 4 PARAM_CTTYPE_VALUE 
ValueRows 1
ValueCol 2
ValueType VAR_INTEGER
Value 1 1 
Param 5 PARAM_CTTYPE_VALUE 
ValueRows 1
ValueCol 2
ValueType VAR_DOUBLE
Value 1 3 
TemporalConstraints DEFINED
ModuleTask mt0
SynchronizationType CLOCKSOURCEPERIODIC
PeriodTime 5
PeriodTimeUnits M_SEC
ExecutionTime 1
ExecutionTimeUnits M_SEC
CPU cpu0
Priority 5

ModuleFileId Control
ModuleId 4
Library USER
ParamNumber 0
TemporalConstraints DEFINED
ModuleTask mt0
SynchronizationType CLOCKSOURCEPERIODIC
PeriodTime 5
PeriodTimeUnits M_SEC
ExecutionTime 100
ExecutionTimeUnits U_SEC
CPU cpu0
Priority 5

ModuleFileId Kin
ModuleId 6
Library USER
ParamNumber 0
TemporalConstraints DEFINED
ModuleTask mt0
SynchronizationType CLOCKSOURCEPERIODIC
PeriodTime 10
PeriodTimeUnits M_SEC
ExecutionTime 1
ExecutionTimeUnits M_SEC
CPU cpu0
Priority 5

ModuleFileId Excavator
ModuleId 2
Library USER
TemporalConstraints NONDEFINED

ModuleFileId Exc_Atr
ModuleId 5
Library USER
TemporalConstraints NONDEFINED

Connexions 7
1 3 6 1 5 1 
EVENT

2 3 8 1 5 2 
EVENT

3 6 1 1 3 9 
FUNCTIONAL

4 3 1 1 4 1 
FUNCTIONAL

5 2 1 3 6 2 4 3 3 11 
DRIVER

6 4 2 1 2 2 
DRIVER

7 3 10 1 2 4 
DRIVER


