ModuleType ALGORITHMICAL
ModuleName See_LEDs
IncludeFile inc.h
VariableFile var.c
InitialisationFile init.c
CalculationFile compute.c
EndFile end.c
TemporalConstraints NONDEFINED
NbrPortVariable 2
PortName 4points
PortId 1
PortType INPUT
VariableName 4points
VariableType VAR_DOUBLE
VariableRows 2
VariableColumns 2
Filtre 0
PortName LED_pos
PortId 4
PortType OUTPUT
VariableName LED_pos
VariableType VAR_DOUBLE
VariableRows 2
VariableColumns 2
Filtre 0
NbrPortEvent 1
PortName LOS
PortId 3
PortType OUTPUT
EventName LOS
EventType INNEROUTPUT
NbrPortParam 0
