%!PS-Adobe-2.0 EPSF-2.0
%%Creator: IlogViews Dump module
%%BoundingBox: 0 443 434 842
%%Date: Thu Feb 18 22:32:08 1999
%%Pages: (atend)
%%BeginProlog
/ilvlw true def
/bd{bind def}bind def/ld{load def}bd/x/exch ld
/t/translate ld/G/gsave ld/g/grestore ld/mt/moveto ld
/lt/lineto ld/rmt/rmoveto ld/rlt/rlineto ld
/r/roll ld/n/newpath ld/sc/gsave ld/c/closepath ld
/slw/setlinewidth ld
/s{ilvlw{stroke}{matrix currentmatrix imtrx
   setmatrix stroke setmatrix}ifelse}bd
/rc{currentrgbcolor currentlinewidth currentdash
currentfont grestore setfont setdash slw setrgbcolor}bd
/fillpat{flattenpath pathbbox G 5 -1 r
    {eoclip}{clip}ifelse 3 -1 r dup 0 x t sub
    3 1 r x dup 0 t sub 4 -1 r dup 3 1 r div ceiling
    cvi 1 add 4 2 r 1 index div ceiling cvi 1 add
    {3 copy pop G{4 index exec dup 0 t}repeat
     g pop dup 0 x t}repeat g 4{pop}repeat}bd
/rect{mt dup 0 x rlt x 0 rlt neg 0 x rlt c}bd
/ilvshow{
  {pop pop currentpoint round x round x mt}x kshow}bd
/readpattern{
  mul string currentfile x readhexstring pop/p x def}bd
/imtrx matrix currentmatrix def
/ilvsf{dup systemdict/findfont get exec dup length dict
    begin{1 index/FID ne{def}{pop pop}ifelse} forall
    /Encoding Encoding dup length array copy
   [[8#202/quotesinglbase][8#203/florin]
    [8#204/quotedblbase][8#205/ellipsis]
    [8#206/dagger][8#207/daggerdbl]
    [8#210/circumflex][8#211/perthousand]
    [8#212/Scaron][8#213/guilsinglleft]
    [8#214/OE][8#221/quoteleft]
    [8#222/quoteright][8#223/quotedblleft]
    [8#224/quotedblright][8#225/bullet]
    [8#226/endash][8#227/emdash]
    [8#230/tilde][8#232/scaron]
    [8#233/guilsinglright][8#234/oe]
    [8#237/Ydieresis][8#240/space]
    [8#241/exclamdown][8#242/cent]
    [8#243/sterling][8#244/currency]
    [8#245/yen][8#246/bar]
    [8#247/section][8#250/dieresis]
    [8#252/ordfeminine][8#253/guillemotleft]
    [8#255/hyphen][8#257/macron]
    [8#260/ring][8#264/acute]
    [8#266/paragraph][8#267/periodcentered]
    [8#270/cedilla][8#272/ordmasculine]
    [8#273/guillemotright][8#277/questiondown]
    [8#300/Agrave][8#301/Aacute]
    [8#302/Acircumflex][8#303/Atilde]
    [8#304/Adieresis][8#305/Aring]
    [8#306/AE][8#307/Ccedilla]
    [8#310/Egrave][8#311/Eacute]
    [8#312/Ecircumflex][8#313/Edieresis]
    [8#314/Igrave][8#315/Iacute]
    [8#316/Icircumflex][8#317/Idieresis]
    [8#321/Ntilde][8#322/Ograve]
    [8#323/Oacute][8#324/Ocircumflex]
    [8#325/Otilde][8#326/Odieresis]
    [8#330/Oslash][8#331/Ugrave]
    [8#332/Uacute][8#333/Ucircumflex]
    [8#334/Udieresis][8#335/Yacute]
    [8#337/germandbls][8#340/agrave]
    [8#341/aacute][8#342/acircumflex]
    [8#343/atilde][8#344/adieresis]
    [8#345/aring][8#346/ae]
    [8#347/ccedilla][8#350/egrave]
    [8#351/eacute][8#352/ecircumflex]
    [8#353/edieresis][8#354/igrave]
    [8#355/iacute][8#356/icircumflex]
    [8#357/idieresis][8#361/ntilde]
    [8#362/ograve][8#363/oacute]
    [8#364/ocircumflex][8#365/otilde]
    [8#366/odieresis][8#367/divide]
    [8#370/oslash][8#371/ugrave]
    [8#372/uacute][8#373/ucircumflex]
    [8#374/udieresis][8#375/yacute]
    [8#377/ydieresis]]
    {aload pop 2 index 3 1 roll put}forall def
    currentdict end definefont exch scalefont setfont}bd
%%EndProlog
%%Page: 1 1
%%BeginPageSetup
 0 842 t 1 -1 scale
/Courier findfont setfont
%%EndPageSetup
12/Helvetica ilvsf
[] 0 setdash
0.752941 setgray
1 slw
n 110 80 120 120 rect  eofill
12/Helvetica ilvsf
0 setgray

G 175 164 mt 1 -1 scale(GravComp)dup stringwidth pop -2 div 0 rmt ilvshow g
12/Helvetica ilvsf
0.109804 setgray

n matrix currentmatrix 120 140 t 10 10 scale 0 0 mt 1 -1 scale  0 0 1 0 360 arc setmatrix
 eofill
12/Helvetica ilvsf
0 setgray

G 132 144 mt 1 -1 scale(Grav)ilvshow g
12/Helvetica ilvsf
0.298039 setgray

n matrix currentmatrix 230 180 t 10 10 scale 0 0 mt 1 -1 scale  0 0 1 0 360 arc setmatrix
 eofill
12/Helvetica ilvsf
0 setgray

G 197 184 mt 1 -1 scale(Tau)ilvshow g
showpage
%%Trailer
%%Pages: 1
%%EOF
