ModuleType PHYSICAL
ModuleName Bidon_RP
IncludeFile inc.h
VariableFile var.c
InitialisationFile init.c
CalculationFile reinit.c
EndFile end.c
TemporalConstraints NONDEFINED
NbrPortDriver 2
PortName U
PortId 1
PortType INPUT
VariableName U
VariableType VAR_DOUBLE
VariableRows 1
VariableColumns 1
CallFunction drvcall.c
PortName X
PortId 2
PortType OUTPUT
VariableName X
VariableType VAR_DOUBLE
VariableRows 1
VariableColumns 1
CallFunction drvcall.c
NbrPortEvent 1
PortName PreCond
PortId 3
PortType OUTPUT
EventName PreCond
EventType INNEROUTPUT
