%!PS-Adobe-3.0
%%Title: compute.c
%%For: Jean-Philippe Roussel
%%Creator: a2ps version 4.12
%%CreationDate: Tue Mar 27 11:59:20 2001
%%BoundingBox: 24 24 571 818
%%DocumentData: Clean7Bit
%%Orientation: Landscape
%%Pages: 2
%%PageOrder: Ascend
%%DocumentMedia: a4 595 842 0 () ()
%%DocumentNeededResources: font Courier
%%+ font Courier-Bold
%%+ font Courier-BoldOblique
%%+ font Courier-Oblique
%%+ font Helvetica
%%+ font Helvetica-Bold
%%+ font Symbol
%%+ font Times-Bold
%%+ font Times-Roman
%%DocumentProcessColors: Black 
%%DocumentSuppliedResources: procset a2ps-a2ps-hdr
%%+ procset a2ps-black+white-Prolog
%%+ encoding ISO-8859-1Encoding
%%EndComments
/a2psdict 200 dict def
a2psdict begin
%%BeginProlog
%%Copyright: (c) 1988, 89, 90, 91, 92, 93 Miguel Santana
%%Copyright: (c) 1995, 96, 97, 98 Akim Demaille, Miguel Santana
% Check PostScript language level.
/languagelevel where {
  pop /gs_languagelevel languagelevel def
} {
  /gs_languagelevel 1 def
} ifelse

% EPSF import as in the Red Book
/BeginInclude {
  /b4_Inc_state save def    		% Save state for cleanup
  /dict_count countdictstack def	% Count objects on dict stack
  /op_count count 1 sub def		% Count objects on operand stack 
  userdict begin
    0 setgray 0 setlinecap
    1 setlinewidth 0 setlinejoin
    10 setmiterlimit [ ] 0 setdash newpath
    gs_languagelevel 1 ne {
      false setstrokeadjust false setoverprint 
    } if
} bind def

/EndInclude {
  count op_count sub { pos } repeat	% Clean up stacks
  countdictstack dict_count sub { end } repeat
  b4_Inc_state restore
} bind def

/BeginEPSF {
  BeginInclude
  /showpage { } def
} bind def

/EndEPSF {
  EndInclude
} bind def

% Page prefeed
/page_prefeed {         % bool -> -
  statusdict /prefeed known {
    statusdict exch /prefeed exch put
  } {
    pop
  } ifelse
} bind def

/deffont {
  findfont exch scalefont def
} bind def

/reencode_font {
  findfont reencode 2 copy definefont pop def
} bind def

% Function c-show (str => -)
% centers text only according to x axis.
/c-show { 
  dup stringwidth pop
  2 div neg 0 rmoveto
  show
} bind def

% Function l-show (str => -)
% prints texts so that it ends at currentpoint
/l-show {
  dup stringwidth pop neg 
  0 
  rmoveto show
} bind def

% center-fit show (str w => -)
% show centered, and scale currentfont so that the width is less than w
/cfshow {
  exch dup stringwidth pop
  % If the title is too big, try to make it smaller
  3 2 roll 2 copy
  gt
  { % if, i.e. too big
    exch div
    currentfont exch scalefont setfont
  } { % ifelse
    pop pop 
  }
  ifelse
  c-show			% center title
} bind def

% Return the y size of the current font
% - => fontsize
/currentfontsize {
  currentfont /FontMatrix get 3 get 1000 mul
} bind def

% reencode the font
% <encoding-vector> <fontdict> -> <newfontdict>
/reencode { %def
  dup length 5 add dict begin
    { %forall
      1 index /FID ne 
      { def }{ pop pop } ifelse
    } forall
    /Encoding exch def

    % Use the font's bounding box to determine the ascent, descent,
    % and overall height; don't forget that these values have to be
    % transformed using the font's matrix.
    % We use `load' because sometimes BBox is executable, sometimes not.
    % Since we need 4 numbers an not an array avoid BBox from being executed
    /FontBBox load aload pop
    FontMatrix transform /Ascent exch def pop
    FontMatrix transform /Descent exch def pop
    /FontHeight Ascent Descent sub def

    % Define these in case they're not in the FontInfo (also, here
    % they're easier to get to.
    /UnderlinePosition 1 def
    /UnderlineThickness 1 def
    
    % Get the underline position and thickness if they're defined.
    currentdict /FontInfo known {
      FontInfo
      
      dup /UnderlinePosition known {
	dup /UnderlinePosition get
	0 exch FontMatrix transform exch pop
	/UnderlinePosition exch def
      } if
      
      dup /UnderlineThickness known {
	/UnderlineThickness get
	0 exch FontMatrix transform exch pop
	/UnderlineThickness exch def
      } if
      
    } if
    currentdict 
  end 
} bind def

% Function print line number (<string> # -)
/# {
  gsave
    sx cw mul neg 2 div 0 rmoveto
    f# setfont
    c-show
  grestore
} bind def

% -------- Some routines to enlight plain b/w printings ---------

% Underline
% width --
/dounderline {
  currentpoint
  gsave
    moveto
    0 currentfont /Descent get currentfontsize mul rmoveto
    0 rlineto
    stroke
  grestore
} bind def

% Underline a string
% string --
/dounderlinestring {
  stringwidth pop
  dounderline
} bind def

/UL {
  /ul exch store
} bind def

% Draw a box of WIDTH wrt current font
% width --
/dobox {
  currentpoint
  gsave
    newpath
    moveto
    0 currentfont /Descent get currentfontsize mul rmoveto
    dup 0 rlineto
    0 currentfont /FontHeight get currentfontsize mul rlineto
    neg 0 rlineto
    closepath
    stroke
  grestore
} bind def

/BX {
  /bx exch store
} bind def

% Box a string
% string --
/doboxstring {
  stringwidth pop
  dobox
} bind def

%
% ------------- Color routines ---------------
%
/FG /setrgbcolor load def

% Draw the background
% width --
/dobackground {
  currentpoint
  gsave
    newpath
    moveto
    0 currentfont /Descent get currentfontsize mul rmoveto
    dup 0 rlineto
    0 currentfont /FontHeight get currentfontsize mul rlineto
    neg 0 rlineto
    closepath
    bgcolor aload pop setrgbcolor
    fill
  grestore
} bind def

% Draw bg for a string
% string --
/dobackgroundstring {
  stringwidth pop
  dobackground
} bind def


/BG {
  dup /bg exch store
  { mark 4 1 roll ] /bgcolor exch store } if
} bind def


/Show {
  bg { dup dobackgroundstring } if
  ul { dup dounderlinestring } if
  bx { dup doboxstring } if
  show
} bind def

% Function T(ab), jumps to the n-th tabulation in the current line
/T {
  cw mul x0 add
  bg { dup currentpoint pop sub dobackground } if
  ul { dup currentpoint pop sub dounderline } if
  bx { dup currentpoint pop sub dobox } if
  y0 moveto
} bind def

% Function n: move to the next line
/n {
  /y0 y0 bfs sub store
  x0 y0 moveto
} bind def

% Function N: show and move to the next line
/N {
  Show
  /y0 y0 bfs sub store
  x0 y0 moveto
} bind def

/S {
  Show
} bind def

%%BeginResource: procset a2ps-a2ps-hdr 2.0 2
%%Copyright: (c) 1988, 89, 90, 91, 92, 93 Miguel Santana
%%Copyright: (c) 1995, 96, 97, 98 Akim Demaille, Miguel Santana
% Function title: prints page header.
% <ct> <rt> <lt> are passed as argument
/title { 
  % 1. Draw the background
  x v get y v get moveto
  gsave
    0 th 2 div neg rmoveto 
    th setlinewidth
    0.95 setgray
    pw 0 rlineto stroke
  grestore
  % 2. Border it
  gsave
    0.7 setlinewidth
    pw 0 rlineto
    0 th neg rlineto
    pw neg 0 rlineto
    closepath stroke
  grestore
  % stk: ct rt lt
  x v get y v get th sub 1 add moveto
%%IncludeResource: font Helvetica
  fHelvetica fnfs 0.8 mul scalefont setfont
  % 3. The left title
  gsave
    dup stringwidth pop fnfs 0.8 mul add exch % leave space took on stack
    fnfs 0.8 mul hm rmoveto
    show			% left title
  grestore
  exch
  % stk: ct ltw rt
  % 4. the right title
  gsave
    dup stringwidth pop fnfs 0.8 mul add exch % leave space took on stack
    dup
    pw exch stringwidth pop fnfs 0.8 mul add sub
    hm
    rmoveto
    show			% right title
  grestore
  % stk: ct ltw rtw
  % 5. the center title
  gsave
    pw 3 1 roll
    % stk: ct pw ltw rtw
    3 copy 
    % Move to the center of the left room
    sub add 2 div hm rmoveto
    % What is the available space in here?
    add sub fnfs 0.8 mul sub fnfs 0.8 mul sub
    % stk: ct space_left
%%IncludeResource: font Helvetica-Bold
  fHelvetica-Bold fnfs scalefont setfont
    cfshow
  grestore
} bind def

% Function border: prints virtual page border
/border { %def
  gsave				% print four sides
    0 setgray
    x v get y v get moveto
    0.7 setlinewidth		% of the square
    pw 0 rlineto
    0 ph neg rlineto
    pw neg 0 rlineto
    closepath stroke
  grestore
} bind def

% Function water: prints a water mark in background
/water { %def
  gsave
    scx scy moveto rotate
%%IncludeResource: font Times-Bold
  fTimes-Bold 100 scalefont setfont
    .97 setgray
    dup stringwidth pop 2 div neg -50 rmoveto
    show
  grestore
} bind def

% Function rhead: prints the right header
/rhead {  %def
  lx ly moveto
  fHelvetica fnfs 0.8 mul scalefont setfont
  l-show
} bind def

% Function footer (cf rf lf -> -)
/footer {
  fHelvetica fnfs 0.8 mul scalefont setfont
  dx dy moveto
  show

  snx sny moveto
  l-show
  
  fnx fny moveto
  c-show
} bind def
%%EndResource
%%BeginResource: procset a2ps-black+white-Prolog 2.0 1

% Function T(ab), jumps to the n-th tabulation in the current line
/T { 
  cw mul x0 add y0 moveto
} bind def

% Function n: move to the next line
/n { %def
  /y0 y0 bfs sub store
  x0 y0 moveto
} bind def

% Function N: show and move to the next line
/N {
  Show
  /y0 y0 bfs sub store
  x0 y0 moveto
}  bind def

/S {
  Show
} bind def

/p {
  false UL
  false BX
  fCourier bfs scalefont setfont
  Show
} bind def

/sy {
  false UL
  false BX
  fSymbol bfs scalefont setfont
  Show
} bind def

/k {
  false UL
  false BX
  fCourier-Oblique bfs scalefont setfont
  Show
} bind def

/K {
  false UL
  false BX
  fCourier-Bold bfs scalefont setfont
  Show
} bind def

/c {
  false UL
  false BX
  fCourier-Oblique bfs scalefont setfont
  Show
} bind def

/C {
  false UL
  false BX
  fCourier-BoldOblique bfs scalefont setfont
  Show 
} bind def

/l {
  false UL
  false BX
  fHelvetica bfs scalefont setfont
  Show
} bind def

/L {
  false UL
  false BX
  fHelvetica-Bold bfs scalefont setfont
  Show 
} bind def

/str{
  false UL
  false BX
  fTimes-Roman bfs scalefont setfont
  Show
} bind def

/e{
  false UL
  true BX
  fHelvetica-Bold bfs scalefont setfont
  Show
} bind def

%%EndResource
%%EndProlog
%%BeginSetup
%%IncludeResource: font Courier
%%IncludeResource: font Courier-Oblique
%%IncludeResource: font Courier-Bold
%%IncludeResource: font Times-Roman
%%IncludeResource: font Symbol
%%IncludeResource: font Courier-BoldOblique
%%BeginResource: encoding ISO-8859-1Encoding
/ISO-8859-1Encoding [
/.notdef /.notdef /.notdef /.notdef /.notdef /.notdef /.notdef /.notdef 
/.notdef /.notdef /.notdef /.notdef /.notdef /.notdef /.notdef /.notdef 
/.notdef /.notdef /.notdef /.notdef /.notdef /.notdef /.notdef /.notdef 
/.notdef /.notdef /.notdef /.notdef /.notdef /.notdef /.notdef /.notdef 
/space /exclam /quotedbl /numbersign /dollar /percent /ampersand /quoteright 
/parenleft /parenright /asterisk /plus /comma /minus /period /slash 
/zero /one /two /three /four /five /six /seven 
/eight /nine /colon /semicolon /less /equal /greater /question 
/at /A /B /C /D /E /F /G 
/H /I /J /K /L /M /N /O 
/P /Q /R /S /T /U /V /W 
/X /Y /Z /bracketleft /backslash /bracketright /asciicircum /underscore 
/quoteleft /a /b /c /d /e /f /g 
/h /i /j /k /l /m /n /o 
/p /q /r /s /t /u /v /w 
/x /y /z /braceleft /bar /braceright /asciitilde /.notdef 
/.notdef /.notdef /.notdef /.notdef /.notdef /.notdef /.notdef /.notdef 
/.notdef /.notdef /.notdef /.notdef /.notdef /.notdef /.notdef /.notdef 
/.notdef /.notdef /.notdef /.notdef /.notdef /.notdef /.notdef /.notdef 
/.notdef /.notdef /.notdef /.notdef /.notdef /.notdef /.notdef /.notdef 
/space /exclamdown /cent /sterling /currency /yen /brokenbar /section 
/dieresis /copyright /ordfeminine /guillemotleft /logicalnot /hyphen /registered /macron 
/degree /plusminus /twosuperior /threesuperior /acute /mu /paragraph /bullet 
/cedilla /onesuperior /ordmasculine /guillemotright /onequarter /onehalf /threequarters /questiondown 
/Agrave /Aacute /Acircumflex /Atilde /Adieresis /Aring /AE /Ccedilla 
/Egrave /Eacute /Ecircumflex /Edieresis /Igrave /Iacute /Icircumflex /Idieresis 
/Eth /Ntilde /Ograve /Oacute /Ocircumflex /Otilde /Odieresis /multiply 
/Oslash /Ugrave /Uacute /Ucircumflex /Udieresis /Yacute /Thorn /germandbls 
/agrave /aacute /acircumflex /atilde /adieresis /aring /ae /ccedilla 
/egrave /eacute /ecircumflex /edieresis /igrave /iacute /icircumflex /idieresis 
/eth /ntilde /ograve /oacute /ocircumflex /otilde /odieresis /divide 
/oslash /ugrave /uacute /ucircumflex /udieresis /yacute /thorn /ydieresis 
] def
%%EndResource
% Initialize page description variables.
/sh 595 def
/sw 842 def
/llx 24 def
/urx 818 def
/ury 571 def
/lly 24 def
/#copies 1 def
/th 15.000000 def
/fnfs 11 def
/bfs 8.005733 def
/cw 4.803440 def

% Dictionary for ISO-8859-1 support
/iso1dict 8 dict begin
  /fCourier ISO-8859-1Encoding /Courier reencode_font
  /fCourier-Bold ISO-8859-1Encoding /Courier-Bold reencode_font
  /fCourier-BoldOblique ISO-8859-1Encoding /Courier-BoldOblique reencode_font
  /fCourier-Oblique ISO-8859-1Encoding /Courier-Oblique reencode_font
  /fHelvetica ISO-8859-1Encoding /Helvetica reencode_font
  /fHelvetica-Bold ISO-8859-1Encoding /Helvetica-Bold reencode_font
  /fTimes-Bold ISO-8859-1Encoding /Times-Bold reencode_font
  /fTimes-Roman ISO-8859-1Encoding /Times-Roman reencode_font
currentdict end def
/bgcolor [ 0 0 0 ] def
/bg false def
/ul false def
/bx false def
% The font for line numbering
/f# /Helvetica findfont bfs .6 mul scalefont def
/fSymbol /Symbol findfont def
/hm fnfs 0.25 mul def
/pw
   cw 81.400000 mul
def
/ph
   501.959430 th add
def
/pmw urx llx sub pw 2 mul sub 1 div def
/pmh 0 def
/v 0 def
/x [
  0
  dup pmw add pw add
] def
/y [
  pmh ph add 0 mul ph add
  dup
] def
/scx sw 2 div def
/scy sh 2 div def
/snx urx def
/sny lly 2 add def
/dx llx def
/dy sny def
/fnx scx def
/fny dy def
/lx snx def
/ly ury fnfs 0.8 mul sub def
/sx 0 def
/tab 8 def
/x0 0 def
/y0 0 def
%%EndSetup

%%Page: (1-2) 1
%%BeginPageSetup
/pagesave save def
sh 0 translate 90 rotate
%%EndPageSetup
iso1dict begin
gsave
llx lly 12 add translate
/v 0 store
/x0 x v get 3.362408 add sx cw mul add store
/y0 y v get bfs th add sub store
x0 y0 moveto
(// Orccad Version: 3.1    ) c n
(// Module : Derivation) N
(// Computation File ) N
(// ) N
(// Module Ports :) N
(// ) S 8 T (input DOUBLE Pos_DirI) N
(// ) S 8 T (input DOUBLE Vel_WheelI[4]) N
(// ) S 8 T (input DOUBLE Pos_WheelI[4]) N
(// ) S 8 T (param DOUBLE DesirePosition[4]) N
(// ) S 8 T (output DOUBLE SpeedFollowO[1]) N
(//      output DOUBLE DiffDistanceO[1]) N
(//      output DOUBLE DiffSpeedO[1]) N
(// ) S 8 T (output DOUBLE Direction) N
(// ) S 8 T (input DOUBLE LinearCamera[5]) N
(// ) N
(// ) N
(// Date of creation : Tue Mar 13 10:42:19 2001) N
() p n
() N
(double) k
( Wheel_Vel;) p n
(double) k
( distance0;) p n
(double) k
( distance1;) p n
(bool CondInit;) N
(double) k
( TempDiffSpeed;) p n
(double) k
( gap;) p n
(double) k
( atanTmp;) p n
(double) k
( TempDir;) p n
(double) k
( TempSpeedFollow;) p n
() N
(bool TargetDetected = \(LinearCamera[0]==0.0\); ) S
(// true if the target is visible) c n
(double) k
( alpha    = LinearCamera[1];) p n
(double) k
( beta     = LinearCamera[2];) p n
(double) k
( dist       = LinearCamera[3];) p n
(double) k
( dev        = LinearCamera[4];) p n
(double) k
( distance   = sqrt\(dist*dist + dev*dev\);) p n
() N
() N
( ) N
(/*printf\("\\n>>>>>> alpha=%f, beta=%f, dist=%f, dev=%f, distance=%f, target=%d\\n\\) c n
(n",alpha, beta, dist, dev, distance, \(TargetDetected\)?1:0\);*/) N
(printf\(") p
(\\n essai essai essai \\n) str
("\);) p n
(if) K
( \(!TargetDetected\) ) p n
(     ) S
(// No detection of target ) c n
({ ) p n
(  No_target_time += dt;) N
(  cout << ") S
(TestRules: Pas de target depuis ) str
(" << No_target_time << ") p
( sec \\n) str
(" << endl << endl;) p n
(} ) N
(else) K
( ) p n
(// Target detected) c n
({) p n
(  ) S
(//distance0=distance;) c n
(  cout << ") p
(TestRules: Target detectee ) str
(" << endl;) p n
(  cout << ") S
(  --> Distance cible en metres   : ) str
(" << distance << endl;) p n
(  ) S
(//while \( \(distance - 6\)  > 0\)) c n
(  ) p
(//{) c n
(  ) p
(// cout << "  --> Direction cible en degres : " << alpha * RAD2DEG;) c n
(  cout << endl << endl;) p n
() N
(                           ) N
(  No_target_time = 0.0;) N
() N
(  ) S
(if) K
( \(Vel_old>=0\) ) p
(//the Car is Running Forward) c n
(compute.c) (Page 1/4) (Mar 27, 01 11:43) title
border
/v 1 store
/x0 x v get 3.362408 add sx cw mul add store
/y0 y v get bfs th add sub store
x0 y0 moveto
(    {) p n
() S 8 T ( ) N
(      Wheel_Vel = \(Vel_WheelI[0]+Vel_WheelI[1]+Vel_WheelI[2]+Vel_WheelI[3]\)/4.0;) N
( ) N
(      cout << ") S
( la vitesse est: ) str
(" << Wheel_Vel << ") p
(  rad/s) str
(" << endl;      ) p
(// measure of th) c n
(e radial speed) N
() p n
(       ) S
(if) K
( \( Wheel_Vel >= 0 \)) p n
() S 8 T ( { ) N
() N
() S 8 T ( TempSpeedFollow =\( R * Wheel_Vel \);) N
() S 8 T ( SpeedFollowO = TempSpeedFollow;) N
() S 8 T ( cout << ") S
(la valeur de SpeedFollowO est :) str
(" << SpeedFollowO << endl;) p
(// << "    le ) c n
(vehicule est arrete \\n";) N
() p 8 T ( ) S
(//cout << "la valeur de  Pos_WheelsI est :" << Pos_WheelI << endl;) c n
() p 8 T ( ) S
(//cout << "la valeur de Vel_WheelI est :" << Vel_WheelI << endl; ) c n
() p 8 T ( }) N
() S 8 T ( ) S
(else) K n
() p 8 T ( {) N
() S 8 T ( SpeedFollowO =\( R * Wheel_Vel \);                                       ) N
(       ) S
(// Calcul of the linear speed) c n
() p 8 T ( cout << ") S
(The speed of the vehicle is) str
(" << SpeedFollowO << endl;) p n
() S 8 T ( } ) N
(       ) N
(      ) S
(if) K
( \(distance0 == 0.0\)) p n
() S 8 T ({) N
() S 8 T (  cout << ") S
(reference...\\n) str
(";                            ) p
(// Determination of th) c n
(e distance between the two vehicules whereas) N
() p 8 T (  distance0 = distance;) N
() S 8 T (}) N
(      ) S
(else) K
( ) p n
() S 8 T () S
(if) K
( \(CondInit == false\)                                 ) p
(// if the initial) c n
( conditions are not verified) N
(          {) p n
(            gap=distance;) N
(            DiffDistanceO = \( gap - 1 \);                       ) S
(// safety margin ) c n
(= 1M ) N
(            distance1 = \( distance - 0.05 \);) p n
(            TempDiffSpeed = \( distance0 - distance1 \);   ) S
(// calculation of the d) c n
(ifference of speed between the two vehicles by                                  ) N
(                                    // derivation of the difference of positions) N
( of each vehicle.) N
() p 8 T (                                                       ) S
(// recall formula) c n
(te   derivation:f`\(x\) = lim \(\(f\(x+h\)-f\(x\)\)/h\)) N
() p n
() N
(            TempDiffSpeed = \( TempDiffSpeed / \(0.1\) \);) N
(            ) S
(if) K
( \( TempDiffSpeed <= 2.9 || TempDiffSpeed >= -1.2 \)  ) p
(// Initial con) c n
(ditions :) N
() p 8 T (      ) S
(//  Amax < \(z`\(t0\)-x`\(t0\)\)/0.6 < Amin) c n
() p 8 T (      {) N
() S 8 T () S 16 T (cout<<") S
(conditions initiales verifiees \\n) str
(";) p n
() S 8 T () S 16 T (CondInit = true;) N
() S 8 T () S 16 T (distance0 = distance;) N
() S 8 T (      }) N
(            ) S
(else) K n
() p 8 T (      {) N
() S 8 T () S 16 T (CondInit = false;) N
() S 8 T () S 16 T (distance0 = distance;) N
() S 8 T (      }) N
(          }) N
() S 8 T () S
(else) K n
(compute.c) (Page 2/4) (Mar 27, 01 11:43) title
border
grestore
(Printed by Jean-Philippe Roussel) rhead
(compute.c) (1/2) (Tuesday March 27, 2001) footer
end % of iso1dict
pagesave restore
showpage
%%Page: (3-4) 2
%%BeginPageSetup
/pagesave save def
sh 0 translate 90 rotate
%%EndPageSetup
iso1dict begin
gsave
llx lly 12 add translate
/v 0 store
/x0 x v get 3.362408 add sx cw mul add store
/y0 y v get bfs th add sub store
x0 y0 moveto
(          {) p n
(            gap = distance;) N
(            DiffDistanceO = \( gap - 1 \); ) N
(                                                              ) S
(// calculate of di) c n
(fference of speed; DiffSpeed calcule                                            ) N
(                                         //a la sortie du module va servir de ba) N
(se a la loi de) N
(                                                              ) p
(// commande implem) c n
(entee dans le module suiva  ) N
(          printf\(") p
( \\n $$$$$$$$$$$$$$$$$$$$$$$$$##############$$$$$$$$$$$$$$$$ \\n ) str
("\);) p n
(            distance1 = distance; ) N
(            TempDiffSpeed = \(fabs\( distance1 - distance0 \)\);) N
() S 8 T (    DiffSpeedO = \( TempDiffSpeed / 0.1 \);) N
() S 8 T (    cout << ") S
(Voici la valeur de DiffSpeedO:) str
(" << DiffSpeedO << endl;) p n
(            distance0 = distance;) N
(         printf\(") S
( \\n $$$$$$$$$$$$$$$$$$$$$$$$$##############$$$$$$$$$$$$$$$$ \\n ) str
("\);) p n
() S 8 T (     ) S 16 T (    ) S
(// mode de suivi \(0=normal; 1=avec calcul de phi\)) c n
() p 8 T (    bool SUIVI_COMPLEXE = 0;) N
() N
() S 8 T (    ) S
(if) K
( \(\(\(alpha*beta\)>0.0\) && \(alpha!=0.0\) && \(SUIVI_COMPLEXE==1\)\) {) p n
() S 8 T (      ) S
(// calcul du rayon de courbure) c n
() p 8 T (      ) S
(double) k
( rayon = dev + dist*tan\(M_PI/2.0 - alpha\);) p n
() S 8 T (      cout << ") S
(rayon : ) str
(" << rayon << endl;) p n
() S 8 T (      ) S
(// recherche dichotomique du braquage en fonction du rayon de coub) c n
(ure) N
() p 8 T (      ) S
(int) k
( debut = 1;) p n
() S 8 T (      ) S
(int) k
( fin = NbValPhi;) p n
() S 8 T (      ) S
(int) k
( milieu;) p n
() S 8 T (      ) S
(while) K
( \(debut < fin\) ) p n
() S 8 T () S 16 T ({) N
() S 8 T () S 16 T (  milieu = \(debut+fin\)/2;) N
() S 8 T () S 16 T (  ) S
(if) K
( \(TabCurv2Phi[milieu][0] > rayon\) ) p n
() S 8 T () S 16 T (    {) N
() S 8 T () S 16 T (      fin = milieu - 1;) N
() S 8 T () S 16 T (    } ) N
() S 8 T () S 16 T (  ) S
(else) K n
() p 8 T () S 16 T (    ) S
(if) K
( \(TabCurv2Phi[milieu][0] < rayon\) ) p n
() S 8 T () S 16 T (      {) N
() S 8 T () S 16 T () S 24 T (debut = milieu + 1;) N
() S 8 T () S 16 T (      }) N
() S 8 T () S 16 T (    ) S
(else) K n
() p 8 T () S 16 T (      fin = debut;) N
() S 8 T () S 16 T (}) N
() S 8 T (      ) S
(// approximation lineaire de phi en fonction du rayon de courbure) c n
() p 8 T (      TempDir = TabCurv2Phi[debut][1] +) N
() S 8 T () S 16 T (\(\(rayon - TabCurv2Phi[debut][0]\) * ) N
() S 8 T () S 16 T ( \(TabCurv2Phi[fin][1] - TabCurv2Phi[debut][1]\) / ) N
() S 8 T () S 16 T ( \(TabCurv2Phi[fin][0] - TabCurv2Phi[debut][0]\)\);) N
(  ) N
() S 8 T (      ) S
(// affichage de debug) c n
() p 8 T (      cout << ") S
(ANGLE DE BRAQUAGE PRECALCULE : ) str
(" << RAD2DEG * TempDir << ) p n
(") S
( degres) str
(" << endl;) p n
() S 8 T (    }) N
() S 8 T (    ) S
(else) K
(  ) p
(// Suivi elementaire ameliore) c n
() p 8 T (      {) N
() S 8 T () S 16 T () S
(// Lateral distance Using P Control) c n
() p 8 T () S 16 T (atanTmp = dev / \(2*dist\);) N
() S 8 T () S 16 T () S
(if) K
( \(atanTmp\)) p n
() S 8 T () S 16 T (  TempDir = - atan \(atanTmp\);) N
() S 8 T () S 16 T () S
(else) K n
() p 8 T () S 16 T (  TempDir = 0.0;) N
() S 8 T (      }) N
(compute.c) (Page 3/4) (Mar 27, 01 11:43) title
border
/v 1 store
/x0 x v get 3.362408 add sx cw mul add store
/y0 y v get bfs th add sub store
x0 y0 moveto
() p 8 T (  ) N
() S 8 T (    ) S
(if) K
( \(TempDir>= 0.3\)   ) p n
() S 8 T (      Direction = 0.3;) N
() S 8 T (    ) S
(else) K
( ) p
(if) K
( \(TempDir<= -0.3\)  ) p n
() S 8 T (      Direction = - 0.3;) N
() S 8 T (    ) S
(else) K
(  ) p n
() S 8 T (      Direction = TempDir;) N
() S 8 T (  } ) N
(}   ) N
(      ) S 8 T () N
(else) K n
(  {) p n
(    SpeedFollowO = 0.0;) N
(    DiffDistanceO = 0.0;) N
(    DiffSpeedO = 0.0;) N
(  }) N
() S 8 T (  ) N
( ) N
() N
(else) K n
({) p n
(  cout << ") S
(catastrophe \\n) str
("; ) p n
(} ) N
() N
(}) N
() N
() N
(//else) c n
(// {) N
(//   SpeedFollowO = 0.0;) N
(//    DiffDistanceO = 0.0;) N
(//   DiffSpeedO = 0.0;) N
(// }) N
(//}) N
(compute.c) (Page 4/4) (Mar 27, 01 11:43) title
border
grestore
(Printed by Jean-Philippe Roussel) rhead
(compute.c) (2/2) (Tuesday March 27, 2001) footer
end % of iso1dict
pagesave restore
showpage

%%Trailer
end
%%EOF
