ModuleType ALGORITHMICAL
ModuleName Observateur
IncludeFile inc.h
VariableFile var.c
InitialisationFile init.c
CalculationFile compute.c
EndFile end.c
TemporalConstraints NONDEFINED
NbrPortVariable 7
PortName Speed_Follow
PortId 6
PortType INPUT
VariableName Speed_FollowI
VariableType VAR_DOUBLE
VariableRows 1
VariableColumns 1
Filtre 0
PortName Diff_Distance
PortId 7
PortType INPUT
VariableName Diff_DistanceI
VariableType VAR_DOUBLE
VariableRows 1
VariableColumns 1
Filtre 0
PortName Diff_Speed
PortId 8
PortType INPUT
VariableName Diff_SpeedI
VariableType VAR_DOUBLE
VariableRows 1
VariableColumns 1
Filtre 0
PortName AccelFollowF
PortId 10
PortType OUTPUT
VariableName AccelFollowFO
VariableType VAR_DOUBLE
VariableRows 1
VariableColumns 1
Filtre 0
PortName DiffDistanceF
PortId 12
PortType OUTPUT
VariableName DiffDistanceFO
VariableType VAR_DOUBLE
VariableRows 1
VariableColumns 1
Filtre 0
PortName DiffSpeedF
PortId 13
PortType OUTPUT
VariableName DiffSpeedFO
VariableType VAR_DOUBLE
VariableRows 1
VariableColumns 1
Filtre 0
PortName Ratio
PortId 14
PortType OUTPUT
VariableName RatioO
VariableType VAR_DOUBLE
VariableRows 1
VariableColumns 1
Filtre 0
NbrPortEvent 0
NbrPortParam 0
