ModuleType ALGORITHMICAL
ModuleName SickToLinCam
IncludeFile inc.h
VariableFile var.c
InitialisationFile init.c
CalculationFile compute.c
EndFile end.c
TemporalConstraints NONDEFINED
NbrPortVariable 2
PortName sickData
PortId 1
PortType INPUT
VariableName sickDataIn
VariableType VAR_INTEGER
VariableRows 1
VariableColumns 7
Filtre 0
PortName LinCamData
PortId 2
PortType OUTPUT
VariableName LinCamDataO
VariableType VAR_DOUBLE
VariableRows 1
VariableColumns 5
Filtre 0
NbrPortEvent 1
PortName LooseCam
PortId 3
PortType OUTPUT
EventName LooseCamE
EventType INNEROUTPUT
NbrPortParam 0
