ModuleType BEHAVIORAL
ModuleName ATR1_VORT
TemporalConstraints NONDEFINED
NbrPortEvent 1
PortName StabPost
PortId 1
PortType INPUT
EventName Stabilized
EventType MESPOSTCONDITION
Timeout 10
TimeoutUnits SS
NbrPortVariable 0
