ModuleType BEHAVIORAL
ModuleName TR_BehaveAtr
TemporalConstraints NONDEFINED
NbrPortEvent 1
PortName EndTR
PortId 1
PortType INPUT
EventName EndTRE
EventType MESPOSTCONDITION
Timeout 1000
TimeoutUnits M_SEC
NbrPortVariable 0
