ModuleType ALGORITHMICAL
ModuleName Start
IncludeFile inc.h
VariableFile var.c
InitialisationFile init.c
CalculationFile compute.c
EndFile end.c
TemporalConstraints NONDEFINED
NbrPortVariable 9
PortName Joystick
PortId 1
PortType INPUT
VariableName Joystick
VariableType VAR_DOUBLE
VariableRows 1
VariableColumns 2
Filtre 0
PortName LinearCamera
PortId 2
PortType INPUT
VariableName LinearCamera
VariableType VAR_DOUBLE
VariableRows 1
VariableColumns 5
Filtre 0
PortName Direction
PortId 3
PortType OUTPUT
VariableName DirectionO
VariableType VAR_DOUBLE
VariableRows 1
VariableColumns 1
Filtre 0
PortName Velocity
PortId 4
PortType OUTPUT
VariableName VelocityO
VariableType VAR_DOUBLE
VariableRows 1
VariableColumns 4
Filtre 0
PortName Pos_Wheel
PortId 6
PortType INPUT
VariableName Pos_WheelI
VariableType VAR_DOUBLE
VariableRows 1
VariableColumns 4
Filtre 0
PortName Vel_Wheel
PortId 7
PortType INPUT
VariableName Vel_WheelI
VariableType VAR_DOUBLE
VariableRows 1
VariableColumns 4
Filtre 0
PortName Pos_Dir
PortId 8
PortType INPUT
VariableName Pos_DirI
VariableType VAR_DOUBLE
VariableRows 1
VariableColumns 1
Filtre 0
PortName Time
PortId 18
PortType OUTPUT
VariableName TimeO
VariableType VAR_DOUBLE
VariableRows 1
VariableColumns 1
Filtre 0
PortName Distance
PortId 19
PortType OUTPUT
VariableName DistanceO
VariableType VAR_DOUBLE
VariableRows 1
VariableColumns 1
Filtre 0
NbrPortEvent 0
NbrPortParam 1
PortName DesirePosition
PortId 5
VariableName DesirePosition
VariableType VAR_DOUBLE
VariableRows 1
VariableColumns 4

