ModuleType PHYSICAL
ModuleName WinX
IncludeFile inc.h
VariableFile var.c
InitialisationFile init.c
CalculationFile reinit.c
EndFile end.c
TemporalConstraints NONDEFINED
NbrPortDriver 5
PortName torque
PortId 1
PortType INPUT
VariableName torque
VariableType VAR_DOUBLE
VariableRows 1
VariableColumns 2
CallFunction puttorque.c
PortName pos
PortId 2
PortType OUTPUT
VariableName pos
VariableType VAR_DOUBLE
VariableRows 1
VariableColumns 2
CallFunction readpos.c
PortName key
PortId 3
PortType OUTPUT
VariableName key
VariableType VAR_INTEGER
VariableRows 1
VariableColumns 1
CallFunction readkey.c
PortName limit
PortId 4
PortType OUTPUT
VariableName limit
VariableType VAR_INTEGER
VariableRows 1
VariableColumns 2
CallFunction readlimit.c
PortName sensor
PortId 5
PortType OUTPUT
VariableName sensor
VariableType VAR_DOUBLE
VariableRows 1
VariableColumns 2
CallFunction readsensor.c
NbrPortEvent 0
