RobotTaskName CRUISE

InputParam 0
OutputParam 0
Modules 3

ModuleFileId CruiseControl
ModuleId 4
Library USER
ParamNumber 0
TemporalConstraints DEFINED
ModuleTask mt0
SynchronizationType CLOCKSOURCEPERIODIC
PeriodTime 10
PeriodTimeUnits M_SEC
ExecutionTime 1
ExecutionTimeUnits M_SEC
CPU cpu0
Priority 5

ModuleFileId Praxicar
ModuleId 2
Library USER
TemporalConstraints NONDEFINED

ModuleFileId Cruise_ATR
ModuleId 3
Library USER
TemporalConstraints NONDEFINED

Connexions 3
1 4 2 1 2 1 
DRIVER

2 4 3 1 3 1 
EVENT

3 2 2 1 4 1 
DRIVER


