ModuleType ALGORITHMICAL
ModuleName ctraj
IncludeFile inc.h
VariableFile var.c
InitialisationFile init.c
CalculationFile compute.c
EndFile end.c
TemporalConstraints NONDEFINED
NbrPortVariable 3
PortName posd
PortId 1
PortType INPUT
VariableName posd
VariableType VAR_DOUBLE
VariableRows 1
VariableColumns 2
Filtre 0
PortName posi
PortId 2
PortType OUTPUT
VariableName posi
VariableType VAR_DOUBLE
VariableRows 1
VariableColumns 2
Filtre 0
PortName pos
PortId 3
PortType INPUT
VariableName pos
VariableType VAR_DOUBLE
VariableRows 1
VariableColumns 2
Filtre 0
NbrPortEvent 0
NbrPortParam 0
