RobotTaskName Tld

InputParam 3
VariableName SimTime
VariableType VAR_DOUBLE
VariableRows 1
VariableColumns 2

VariableName Kind
VariableType VAR_INTEGER
VariableRows 1
VariableColumns 2

VariableName X_f
VariableType VAR_DOUBLE
VariableRows 1
VariableColumns 2

OutputParam 0
Modules 6

ModuleFileId Gene_Traj_SE3
ModuleId 3
Library USER
ParamNumber 3
Param 2 PARAM_CTTYPE_RTPARAM X_f
Param 4 PARAM_CTTYPE_RTPARAM Kind
Param 5 PARAM_CTTYPE_RTPARAM SimTime
TemporalConstraints DEFINED
ModuleTask mt3
SynchronizationType LINKSOURCE
SynchPort -1
ExecutionTime 1
ExecutionTimeUnits M_SEC
CPU cpu0
Priority 5

ModuleFileId Control
ModuleId 4
Library USER
ParamNumber 0
TemporalConstraints DEFINED
ModuleTask mt2
SynchronizationType CLOCKSOURCEPERIODIC
PeriodTime 5
PeriodTimeUnits M_SEC
ExecutionTime 100
ExecutionTimeUnits U_SEC
CPU cpu0
Priority 10

ModuleFileId Kin
ModuleId 6
Library USER
ParamNumber 0
TemporalConstraints DEFINED
ModuleTask mt1
SynchronizationType CLOCKSOURCEPERIODIC
PeriodTime 10
PeriodTimeUnits M_SEC
ExecutionTime 1
ExecutionTimeUnits M_SEC
CPU cpu0
Priority 5

ModuleFileId Excavator
ModuleId 2
Library USER
TemporalConstraints NONDEFINED

ModuleFileId Capteur
ModuleId 8
Library USER
TemporalConstraints NONDEFINED

ModuleFileId Sensor_Atr
ModuleId 9
Library USER
TemporalConstraints NONDEFINED

Connexions 9
1 6 1 1 3 9 
ASYNSYN

2 3 6 1 9 1 
EVENT

3 3 8 1 9 2 
EVENT

4 8 2 1 9 3 
EVENT

5 8 1 1 6 2 
DRIVER

6 2 1 2 4 3 3 11 
DRIVER

7 4 2 1 2 2 
DRIVER

8 3 1 1 4 1 
ASYNASYN

9 3 10 1 2 4 
DRIVER


