ModuleType BEHAVIORAL
ModuleName AtrInt
TemporalConstraints NONDEFINED
NbrPortEvent 1
PortName Post
PortId 1
PortType INPUT
EventName post
EventType MESPOSTCONDITION
Timeout 10
TimeoutUnits M_SEC
NbrPortVariable 0
