%!PS-Adobe-2.0 EPSF-2.0
%%Title: exo.eps
%%Creator: fig2dev Version 3.2 Patchlevel 0-beta3
%%CreationDate: Fri Jan  5 10:37:30 2001
%%For: azevedo@ciney (Christine Azevedo)
%%Orientation: Portrait
%%BoundingBox: 0 0 478 168
%%Pages: 0
%%BeginSetup
%%EndSetup
%%Magnification: 1.0000
%%EndComments
/$F2psDict 200 dict def
$F2psDict begin
$F2psDict /mtrx matrix put
/col-1 {0 setgray} bind def
/col0 {0.000 0.000 0.000 srgb} bind def
/col1 {0.000 0.000 1.000 srgb} bind def
/col2 {0.000 1.000 0.000 srgb} bind def
/col3 {0.000 1.000 1.000 srgb} bind def
/col4 {1.000 0.000 0.000 srgb} bind def
/col5 {1.000 0.000 1.000 srgb} bind def
/col6 {1.000 1.000 0.000 srgb} bind def
/col7 {1.000 1.000 1.000 srgb} bind def
/col8 {0.000 0.000 0.560 srgb} bind def
/col9 {0.000 0.000 0.690 srgb} bind def
/col10 {0.000 0.000 0.820 srgb} bind def
/col11 {0.530 0.810 1.000 srgb} bind def
/col12 {0.000 0.560 0.000 srgb} bind def
/col13 {0.000 0.690 0.000 srgb} bind def
/col14 {0.000 0.820 0.000 srgb} bind def
/col15 {0.000 0.560 0.560 srgb} bind def
/col16 {0.000 0.690 0.690 srgb} bind def
/col17 {0.000 0.820 0.820 srgb} bind def
/col18 {0.560 0.000 0.000 srgb} bind def
/col19 {0.690 0.000 0.000 srgb} bind def
/col20 {0.820 0.000 0.000 srgb} bind def
/col21 {0.560 0.000 0.560 srgb} bind def
/col22 {0.690 0.000 0.690 srgb} bind def
/col23 {0.820 0.000 0.820 srgb} bind def
/col24 {0.500 0.190 0.000 srgb} bind def
/col25 {0.630 0.250 0.000 srgb} bind def
/col26 {0.750 0.380 0.000 srgb} bind def
/col27 {1.000 0.500 0.500 srgb} bind def
/col28 {1.000 0.630 0.630 srgb} bind def
/col29 {1.000 0.750 0.750 srgb} bind def
/col30 {1.000 0.880 0.880 srgb} bind def
/col31 {1.000 0.840 0.000 srgb} bind def

end
save
-165.0 303.0 translate
1 -1 scale

/cp {closepath} bind def
/ef {eofill} bind def
/gr {grestore} bind def
/gs {gsave} bind def
/sa {save} bind def
/rs {restore} bind def
/l {lineto} bind def
/m {moveto} bind def
/rm {rmoveto} bind def
/n {newpath} bind def
/s {stroke} bind def
/sh {show} bind def
/slc {setlinecap} bind def
/slj {setlinejoin} bind def
/slw {setlinewidth} bind def
/srgb {setrgbcolor} bind def
/rot {rotate} bind def
/sc {scale} bind def
/sd {setdash} bind def
/ff {findfont} bind def
/sf {setfont} bind def
/scf {scalefont} bind def
/sw {stringwidth} bind def
/tr {translate} bind def
/tnt {dup dup currentrgbcolor
  4 -2 roll dup 1 exch sub 3 -1 roll mul add
  4 -2 roll dup 1 exch sub 3 -1 roll mul add
  4 -2 roll dup 1 exch sub 3 -1 roll mul add srgb}
  bind def
/shd {dup dup currentrgbcolor 4 -2 roll mul 4 -2 roll mul
  4 -2 roll mul srgb} bind def
/reencdict 12 dict def /ReEncode { reencdict begin
/newcodesandnames exch def /newfontname exch def /basefontname exch def
/basefontdict basefontname findfont def /newfont basefontdict maxlength dict def
basefontdict { exch dup /FID ne { dup /Encoding eq
{ exch dup length array copy newfont 3 1 roll put }
{ exch newfont 3 1 roll put } ifelse } { pop pop } ifelse } forall
newfont /FontName newfontname put newcodesandnames aload pop
128 1 255 { newfont /Encoding get exch /.notdef put } for
newcodesandnames length 2 idiv { newfont /Encoding get 3 1 roll put } repeat
newfontname newfont definefont pop end } def
/isovec [
8#200 /grave 8#201 /acute 8#202 /circumflex 8#203 /tilde
8#204 /macron 8#205 /breve 8#206 /dotaccent 8#207 /dieresis
8#210 /ring 8#211 /cedilla 8#212 /hungarumlaut 8#213 /ogonek 8#214 /caron
8#220 /dotlessi 8#230 /oe 8#231 /OE
8#240 /space 8#241 /exclamdown 8#242 /cent 8#243 /sterling
8#244 /currency 8#245 /yen 8#246 /brokenbar 8#247 /section 8#250 /dieresis
8#251 /copyright 8#252 /ordfeminine 8#253 /guillemotleft 8#254 /logicalnot
8#255 /endash 8#256 /registered 8#257 /macron 8#260 /degree 8#261 /plusminus
8#262 /twosuperior 8#263 /threesuperior 8#264 /acute 8#265 /mu 8#266 /paragraph
8#267 /periodcentered 8#270 /cedilla 8#271 /onesuperior 8#272 /ordmasculine
8#273 /guillemotright 8#274 /onequarter 8#275 /onehalf
8#276 /threequarters 8#277 /questiondown 8#300 /Agrave 8#301 /Aacute
8#302 /Acircumflex 8#303 /Atilde 8#304 /Adieresis 8#305 /Aring
8#306 /AE 8#307 /Ccedilla 8#310 /Egrave 8#311 /Eacute
8#312 /Ecircumflex 8#313 /Edieresis 8#314 /Igrave 8#315 /Iacute
8#316 /Icircumflex 8#317 /Idieresis 8#320 /Eth 8#321 /Ntilde 8#322 /Ograve
8#323 /Oacute 8#324 /Ocircumflex 8#325 /Otilde 8#326 /Odieresis 8#327 /multiply
8#330 /Oslash 8#331 /Ugrave 8#332 /Uacute 8#333 /Ucircumflex
8#334 /Udieresis 8#335 /Yacute 8#336 /Thorn 8#337 /germandbls 8#340 /agrave
8#341 /aacute 8#342 /acircumflex 8#343 /atilde 8#344 /adieresis 8#345 /aring
8#346 /ae 8#347 /ccedilla 8#350 /egrave 8#351 /eacute
8#352 /ecircumflex 8#353 /edieresis 8#354 /igrave 8#355 /iacute
8#356 /icircumflex 8#357 /idieresis 8#360 /eth 8#361 /ntilde 8#362 /ograve
8#363 /oacute 8#364 /ocircumflex 8#365 /otilde 8#366 /odieresis 8#367 /divide
8#370 /oslash 8#371 /ugrave 8#372 /uacute 8#373 /ucircumflex
8#374 /udieresis 8#375 /yacute 8#376 /thorn 8#377 /ydieresis] def
/Times-Roman /Times-Roman-iso isovec ReEncode
 /DrawEllipse {
	/endangle exch def
	/startangle exch def
	/yrad exch def
	/xrad exch def
	/y exch def
	/x exch def
	/savematrix mtrx currentmatrix def
	x y tr xrad yrad sc 0 0 1 startangle endangle arc
	closepath
	savematrix setmatrix
	} def

/$F2psBegin {$F2psDict begin /$F2psEnteredState save def} def
/$F2psEnd {$F2psEnteredState restore end} def
%%EndProlog

$F2psBegin
10 setmiterlimit
n -1000 6040 m -1000 -1000 l 11707 -1000 l 11707 6040 l cp clip
 0.06000 0.06000 sc
% Polyline
7.500 slw
n 9454 3030 m 9454 2565 l 8989 2565 l 8989 2745 l gs col0 s gr 
% Polyline
n 9469 3765 m 9469 4230 l 9004 4230 l 9004 4050 l gs col0 s gr 
% Polyline
 [15 45] 45 sd
gs  clippath
8974 2907 m 9004 2787 l 9034 2907 l 9034 2745 l 8974 2745 l cp
clip
n 9004 4065 m 9004 2760 l gs col0 s gr gr
 [] 0 sd
% arrowhead
n 8974 2907 m 9004 2787 l 9034 2907 l 9004 2907 l 8974 2907 l  cp gs col7 1.00 shd ef gr  col0 s
% Ellipse
n 9457 3400 248 248 0 360 DrawEllipse gs col0 s gr

% Polyline
n 9424 3645 m 9514 3645 l 9514 3765 l 9424 3765 l cp gs col0 s gr 
% Polyline
n 9409 3030 m 9499 3030 l 9499 3150 l 9409 3150 l cp gs col0 s gr 
% Polyline
n 10095 3675 m 10095 3480 l 10275 3480 l 10275 3690 l gs col0 s gr 
% Polyline
n 10185 3495 m 10185 4110 l gs col0 s gr 
% Polyline
n 10095 3150 m 10095 3345 l 10275 3345 l 10275 3135 l gs col0 s gr 
% Arc
gs  clippath
10556 3301 m 10566 3424 l 10500 3320 l 10551 3474 l 10608 3455 l cp
clip
n 10450.5 3412.5 130.0 140.6 16.8 arc
gs col0 s gr
 gr

% arrowhead
n 10556 3301 m 10566 3424 l 10500 3320 l 10528 3311 l 10556 3301 l  cp gs col7 1.00 shd ef gr  col0 s
% Ellipse
n 4200 3337 302 302 0 360 DrawEllipse gs col0 s gr

% Polyline
gs  clippath
3753 3270 m 3873 3300 l 3753 3330 l 3915 3330 l 3915 3270 l cp
clip
n 2775 3300 m 3900 3300 l gs col0 s gr gr

% arrowhead
n 3753 3270 m 3873 3300 l 3753 3330 l 3753 3300 l 3753 3270 l  cp gs col7 1.00 shd ef gr  col0 s
% Polyline
gs  clippath
6003 3300 m 6123 3330 l 6003 3360 l 6165 3360 l 6165 3300 l cp
clip
n 4500 3330 m 6150 3330 l gs col0 s gr gr

% arrowhead
n 6003 3300 m 6123 3330 l 6003 3360 l 6003 3330 l 6003 3300 l  cp gs col7 1.00 shd ef gr  col0 s
% Polyline
n 3990 3135 m 4410 3540 l gs col0 s gr 
% Polyline
n 3990 3540 m 4395 3120 l gs col0 s gr 
% Polyline
n 6255 2925 m 6150 2925 6150 3735 105 arcto 4 {pop} repeat
  6150 3840 7320 3840 105 arcto 4 {pop} repeat
  7425 3840 7425 3030 105 arcto 4 {pop} repeat
  7425 2925 6255 2925 105 arcto 4 {pop} repeat
 cp gs col0 s gr 
% Polyline
gs  clippath
8823 3345 m 8943 3375 l 8823 3405 l 8985 3405 l 8985 3345 l cp
clip
n 7425 3375 m 8970 3375 l gs col0 s gr gr

% arrowhead
n 8823 3345 m 8943 3375 l 8823 3405 l 8823 3375 l 8823 3345 l  cp gs col7 1.00 shd ef gr  col0 s
% Polyline
 [15 45] 45 sd
n 9435 3405 m 10575 3405 l gs col0 s gr  [] 0 sd
% Polyline
n 9795 3165 m 9975 3165 l 9975 3630 l 9795 3630 l cp gs col0 s gr 
% Polyline
n 8940 2520 m 10620 2520 l 10620 4350 l 8940 4350 l cp gs col0 s gr 
% Polyline
gs  clippath
4200 3777 m 4230 3657 l 4260 3777 l 4260 3615 l 4200 3615 l cp
clip
n 10635 3420 m 10695 3420 l 10695 4800 l 4230 4800 l 4230 3630 l gs col0 s gr gr

% arrowhead
n 4200 3777 m 4230 3657 l 4260 3777 l  col0 s
% Polyline
n 4725 3225 m 4726 3222 l 4728 3216 l 4731 3206 l 4737 3190 l 4744 3170 l
 4752 3145 l 4762 3118 l 4773 3089 l 4784 3059 l 4795 3031 l
 4807 3005 l 4818 2983 l 4829 2963 l 4840 2948 l 4851 2936 l
 4863 2929 l 4875 2925 l 4888 2925 l 4902 2928 l 4917 2934 l
 4933 2944 l 4950 2957 l 4968 2973 l 4987 2991 l 5006 3010 l
 5025 3030 l 5044 3051 l 5063 3070 l 5082 3089 l 5100 3106 l
 5117 3120 l 5133 3132 l 5148 3141 l 5162 3147 l 5175 3150 l
 5190 3151 l 5204 3147 l 5216 3139 l 5227 3128 l 5236 3113 l
 5245 3097 l 5254 3079 l 5262 3060 l 5270 3043 l 5279 3028 l
 5289 3016 l 5300 3007 l 5312 3002 l 5325 3000 l 5337 3001 l
 5349 3005 l 5362 3011 l 5375 3020 l 5388 3031 l 5401 3043 l
 5414 3057 l 5427 3071 l 5440 3086 l 5454 3100 l 5468 3113 l
 5483 3124 l 5498 3134 l 5515 3141 l 5532 3147 l 5550 3150 l
 5567 3151 l 5586 3151 l 5607 3150 l 5631 3147 l 5657 3142 l
 5685 3136 l 5716 3129 l 5748 3122 l 5780 3114 l 5812 3106 l
 5841 3098 l 5867 3091 l 5889 3085 l 5905 3081 l 5916 3078 l
 5922 3076 l 5925 3075 l gs col0 s gr 
% Polyline
n 7590 3180 m 7591 3177 l 7593 3171 l 7596 3161 l 7602 3145 l 7609 3125 l
 7617 3100 l 7627 3073 l 7638 3044 l 7649 3014 l 7660 2986 l
 7672 2960 l 7683 2938 l 7694 2918 l 7705 2903 l 7716 2891 l
 7728 2884 l 7740 2880 l 7753 2880 l 7767 2883 l 7782 2889 l
 7798 2899 l 7815 2912 l 7833 2928 l 7852 2946 l 7871 2965 l
 7890 2985 l 7909 3006 l 7928 3025 l 7947 3044 l 7965 3061 l
 7982 3075 l 7998 3087 l 8013 3096 l 8027 3102 l 8040 3105 l
 8055 3106 l 8069 3102 l 8081 3094 l 8092 3083 l 8101 3068 l
 8110 3052 l 8119 3034 l 8127 3015 l 8135 2998 l 8144 2983 l
 8154 2971 l 8165 2962 l 8177 2957 l 8190 2955 l 8202 2956 l
 8214 2960 l 8227 2966 l 8240 2975 l 8253 2986 l 8266 2998 l
 8279 3012 l 8292 3026 l 8305 3041 l 8319 3055 l 8333 3068 l
 8348 3079 l 8363 3089 l 8380 3096 l 8397 3102 l 8415 3105 l
 8432 3106 l 8451 3106 l 8472 3105 l 8496 3102 l 8522 3097 l
 8550 3091 l 8581 3084 l 8613 3077 l 8645 3069 l 8677 3061 l
 8706 3053 l 8732 3046 l 8754 3040 l 8770 3036 l 8781 3033 l
 8787 3031 l 8790 3030 l gs col0 s gr 
% Polyline
n 2775 3150 m 2775 3147 l 2776 3140 l 2777 3128 l 2779 3109 l 2781 3084 l
 2784 3054 l 2787 3019 l 2791 2980 l 2795 2940 l 2799 2900 l
 2804 2861 l 2809 2824 l 2814 2792 l 2819 2764 l 2825 2740 l
 2830 2722 l 2836 2710 l 2843 2702 l 2850 2700 l 2857 2702 l
 2865 2708 l 2873 2718 l 2882 2733 l 2891 2751 l 2900 2773 l
 2910 2799 l 2920 2827 l 2931 2857 l 2941 2889 l 2952 2921 l
 2963 2954 l 2974 2986 l 2985 3017 l 2996 3045 l 3007 3071 l
 3018 3094 l 3029 3113 l 3040 3128 l 3052 3139 l 3063 3147 l
 3075 3150 l 3088 3150 l 3102 3145 l 3117 3135 l 3132 3121 l
 3147 3103 l 3164 3081 l 3180 3055 l 3197 3027 l 3215 2997 l
 3232 2966 l 3249 2935 l 3266 2905 l 3283 2877 l 3299 2851 l
 3314 2828 l 3328 2809 l 3342 2794 l 3354 2783 l 3365 2777 l
 3375 2775 l 3385 2777 l 3393 2785 l 3400 2797 l 3405 2814 l
 3410 2835 l 3413 2860 l 3416 2888 l 3418 2917 l 3420 2948 l
 3421 2980 l 3423 3010 l 3425 3039 l 3427 3066 l 3430 3090 l
 3434 3110 l 3439 3127 l 3444 3140 l 3450 3150 l 3460 3159 l
 3471 3162 l 3483 3159 l 3497 3152 l 3511 3140 l 3525 3127 l
 3539 3112 l 3553 3099 l 3567 3088 l 3579 3081 l 3590 3076 l
 3600 3075 l 3611 3077 l 3621 3082 l 3631 3090 l 3641 3102 l
 3651 3115 l 3661 3128 l 3668 3139 l 3673 3146 l 3675 3149 l
 3675 3150 l gs col0 s gr 
% Polyline
n 6255 4755 m 6255 4752 l 6256 4744 l 6257 4731 l 6259 4712 l 6262 4687 l
 6266 4656 l 6270 4622 l 6275 4586 l 6280 4550 l 6287 4515 l
 6294 4482 l 6302 4454 l 6310 4429 l 6320 4410 l 6332 4395 l
 6345 4385 l 6360 4380 l 6374 4379 l 6390 4380 l 6407 4384 l
 6426 4391 l 6446 4401 l 6468 4413 l 6491 4428 l 6515 4444 l
 6539 4461 l 6565 4480 l 6590 4499 l 6616 4518 l 6641 4537 l
 6667 4555 l 6691 4572 l 6715 4587 l 6739 4601 l 6761 4612 l
 6782 4621 l 6802 4628 l 6822 4633 l 6840 4635 l 6862 4635 l
 6882 4632 l 6902 4626 l 6922 4617 l 6941 4605 l 6959 4591 l
 6977 4575 l 6995 4557 l 7012 4539 l 7030 4521 l 7047 4503 l
 7063 4487 l 7080 4472 l 7096 4460 l 7112 4450 l 7127 4444 l
 7141 4441 l 7155 4440 l 7169 4443 l 7183 4449 l 7197 4459 l
 7210 4474 l 7224 4492 l 7239 4513 l 7253 4537 l 7267 4562 l
 7280 4586 l 7292 4609 l 7302 4629 l 7310 4645 l 7316 4656 l
 7319 4662 l 7320 4665 l gs col0 s gr 
/Times-Roman-iso ff 180.00 scf sf
4935 3615 m
gs 1 -1 sc (ERREUR) col0 sh gr
/Times-Roman-iso ff 180.00 scf sf
6600 3435 m
gs 1 -1 sc (PID) col0 sh gr
/Times-Roman-iso ff 180.00 scf sf
7830 3690 m
gs 1 -1 sc (TENSION) col0 sh gr
/Times-Roman-iso ff 180.00 scf sf
9600 2400 m
gs 1 -1 sc (SYSTEME) col0 sh gr
/Times-Roman-iso ff 180.00 scf sf
3780 3090 m
gs 1 -1 sc (+) col0 sh gr
/Times-Roman-iso ff 180.00 scf sf
4350 3810 m
gs 1 -1 sc (-) col0 sh gr
/Times-Roman-iso ff 180.00 scf sf
2850 3600 m
gs 1 -1 sc (VITESSE) col0 sh gr
/Times-Roman-iso ff 180.00 scf sf
2850 3825 m
gs 1 -1 sc (DESIREE) col0 sh gr
/Times-Roman-iso ff 180.00 scf sf
6045 5040 m
gs 1 -1 sc (VITESSE REELLE) col0 sh gr
$F2psEnd
rs
