%!PS-Adobe-2.0 EPSF-2.0
%%Title: moteur.eps
%%Creator: fig2dev Version 3.2 Patchlevel 0-beta3
%%CreationDate: Tue Dec 12 14:11:23 2000
%%For: azevedo@affligem (Christine Azevedo)
%%Orientation: Portrait
%%BoundingBox: 0 0 274 205
%%Pages: 0
%%BeginSetup
%%EndSetup
%%Magnification: 1.0000
%%EndComments
/$F2psDict 200 dict def
$F2psDict begin
$F2psDict /mtrx matrix put
/col-1 {0 setgray} bind def
/col0 {0.000 0.000 0.000 srgb} bind def
/col1 {0.000 0.000 1.000 srgb} bind def
/col2 {0.000 1.000 0.000 srgb} bind def
/col3 {0.000 1.000 1.000 srgb} bind def
/col4 {1.000 0.000 0.000 srgb} bind def
/col5 {1.000 0.000 1.000 srgb} bind def
/col6 {1.000 1.000 0.000 srgb} bind def
/col7 {1.000 1.000 1.000 srgb} bind def
/col8 {0.000 0.000 0.560 srgb} bind def
/col9 {0.000 0.000 0.690 srgb} bind def
/col10 {0.000 0.000 0.820 srgb} bind def
/col11 {0.530 0.810 1.000 srgb} bind def
/col12 {0.000 0.560 0.000 srgb} bind def
/col13 {0.000 0.690 0.000 srgb} bind def
/col14 {0.000 0.820 0.000 srgb} bind def
/col15 {0.000 0.560 0.560 srgb} bind def
/col16 {0.000 0.690 0.690 srgb} bind def
/col17 {0.000 0.820 0.820 srgb} bind def
/col18 {0.560 0.000 0.000 srgb} bind def
/col19 {0.690 0.000 0.000 srgb} bind def
/col20 {0.820 0.000 0.000 srgb} bind def
/col21 {0.560 0.000 0.560 srgb} bind def
/col22 {0.690 0.000 0.690 srgb} bind def
/col23 {0.820 0.000 0.820 srgb} bind def
/col24 {0.500 0.190 0.000 srgb} bind def
/col25 {0.630 0.250 0.000 srgb} bind def
/col26 {0.750 0.380 0.000 srgb} bind def
/col27 {1.000 0.500 0.500 srgb} bind def
/col28 {1.000 0.630 0.630 srgb} bind def
/col29 {1.000 0.750 0.750 srgb} bind def
/col30 {1.000 0.880 0.880 srgb} bind def
/col31 {1.000 0.840 0.000 srgb} bind def

end
save
-62.0 369.0 translate
1 -1 scale

/cp {closepath} bind def
/ef {eofill} bind def
/gr {grestore} bind def
/gs {gsave} bind def
/sa {save} bind def
/rs {restore} bind def
/l {lineto} bind def
/m {moveto} bind def
/rm {rmoveto} bind def
/n {newpath} bind def
/s {stroke} bind def
/sh {show} bind def
/slc {setlinecap} bind def
/slj {setlinejoin} bind def
/slw {setlinewidth} bind def
/srgb {setrgbcolor} bind def
/rot {rotate} bind def
/sc {scale} bind def
/sd {setdash} bind def
/ff {findfont} bind def
/sf {setfont} bind def
/scf {scalefont} bind def
/sw {stringwidth} bind def
/tr {translate} bind def
/tnt {dup dup currentrgbcolor
  4 -2 roll dup 1 exch sub 3 -1 roll mul add
  4 -2 roll dup 1 exch sub 3 -1 roll mul add
  4 -2 roll dup 1 exch sub 3 -1 roll mul add srgb}
  bind def
/shd {dup dup currentrgbcolor 4 -2 roll mul 4 -2 roll mul
  4 -2 roll mul srgb} bind def
 /DrawEllipse {
	/endangle exch def
	/startangle exch def
	/yrad exch def
	/xrad exch def
	/y exch def
	/x exch def
	/savematrix mtrx currentmatrix def
	x y tr xrad yrad sc 0 0 1 startangle endangle arc
	closepath
	savematrix setmatrix
	} def

/$F2psBegin {$F2psDict begin /$F2psEnteredState save def} def
/$F2psEnd {$F2psEnteredState restore end} def
%%EndProlog

$F2psBegin
10 setmiterlimit
n -1000 7147 m -1000 -1000 l 6598 -1000 l 6598 7147 l cp clip
 0.06000 0.06000 sc
% Arc
7.500 slw
gs  clippath
5349 4388 m 5263 4476 l 5297 4358 l 5217 4498 l 5268 4528 l cp
clip
n 5115.7 4336.3 211.8 135.4 50.6 arc
gs col7 1.00 shd ef gr gs col0 s gr
 gr

% arrowhead
n 5349 4388 m 5263 4476 l 5297 4358 l  col0 s
% Ellipse
n 2475 4312 420 420 0 360 DrawEllipse gs col0 s gr

% Polyline
n 2370 3915 m 2595 3915 l 2595 3765 l 2370 3765 l cp gs col7 1.00 shd ef gr gs col0 s gr 
% Polyline
n 2385 4845 m 2610 4845 l 2610 4695 l 2385 4695 l cp gs col7 1.00 shd ef gr gs col0 s gr 
% Polyline
n 3465 3975 m 3855 3975 l 3855 4695 l 3465 4695 l cp gs col7 1.00 shd ef gr gs col0 s gr 
% Polyline
n 4200 3675 m 4200 4125 l 4575 4125 l 4575 3675 l gs col7 1.00 shd ef gr gs col0 s gr 
% Polyline
n 4575 5100 m 4575 4650 l 4200 4650 l 4200 5100 l gs col7 1.00 shd ef gr gs col0 s gr 
% Polyline
n 4380 4650 m 4380 5850 l gs col7 1.00 shd ef gr gs col0 s gr 
% Polyline
n 4035 5850 m 4740 5850 l gs col7 1.00 shd ef gr gs col0 s gr 
% Polyline
n 4740 5850 m 4470 6120 l gs col7 1.00 shd ef gr gs col0 s gr 
% Polyline
n 4395 5850 m 4125 6120 l gs col7 1.00 shd ef gr gs col0 s gr 
% Polyline
n 4050 5865 m 3780 6135 l gs col7 1.00 shd ef gr gs col0 s gr 
% Polyline
 [60] 0 sd
n 2475 4305 m 3450 4305 l gs col7 1.00 shd ef gr gs col0 s gr  [] 0 sd
% Polyline
 [60] 0 sd
n 3855 4320 m 5100 4320 l gs col7 1.00 shd ef gr gs col0 s gr  [] 0 sd
% Polyline
n 2490 4845 m 2490 5775 l 1560 5775 l 1575 5775 l gs col7 1.00 shd ef gr gs col0 s gr 
% Polyline
 [15 45] 45 sd
gs  clippath
1395 3072 m 1425 2952 l 1455 3072 l 1455 2910 l 1395 2910 l cp
clip
n 1425 5790 m 1425 2925 l gs col7 1.00 shd ef gr gs col0 s gr gr
 [] 0 sd
% arrowhead
n 1395 3072 m 1425 2952 l 1455 3072 l  col0 s
% Polyline
n 2445 2955 m 2445 3720 l gs col7 1.00 shd ef gr gs col0 s gr 
% Polyline
n 2445 2955 m 1515 2955 l gs col7 1.00 shd ef gr gs col0 s gr 
% Polyline
gs  clippath
2043 2925 m 2163 2955 l 2043 2985 l 2205 2985 l 2205 2925 l cp
clip
n 1650 2955 m 2190 2955 l gs col7 1.00 shd ef gr gs col0 s gr gr

% arrowhead
n 2043 2925 m 2163 2955 l 2043 2985 l  col0 s
/Times-Roman ff 180.00 scf sf
3630 4395 m
gs 1 -1 sc (J) col0 sh gr
/Times-Roman ff 180.00 scf sf
1035 4395 m
gs 1 -1 sc (U) col0 sh gr
/Times-Roman ff 180.00 scf sf
1920 2880 m
gs 1 -1 sc (I) col0 sh gr
/Times-Roman ff 180.00 scf sf
4350 3585 m
gs 1 -1 sc (f) col0 sh gr
/Times-Roman ff 180.00 scf sf
5460 4410 m
gs 1 -1 sc (w) col0 sh gr
$F2psEnd
rs
