RobotTaskName InitSim

InputParam 0
OutputParam 0
Modules 4

ModuleFileId Check_Init
ModuleId 2
Library USER
ParamNumber 0
TemporalConstraints DEFINED
ModuleTask mt0
SynchronizationType CLOCKSOURCEPERIODIC
PeriodTime 100
PeriodTimeUnits M_SEC
ExecutionTime 1
ExecutionTimeUnits M_SEC
CPU cpu0
Priority 5

ModuleFileId Init
ModuleId 4
Library USER
ParamNumber 1
Param 2 PARAM_CTTYPE_VALUE 
ValueRows 1
ValueCol 10
ValueType VAR_DOUBLE
Value 1 1 1 1 1 1 1 1 1 1 
TemporalConstraints DEFINED
ModuleTask mt0
SynchronizationType CLOCKSOURCEPERIODIC
PeriodTime 100
PeriodTimeUnits M_SEC
ExecutionTime 1
ExecutionTimeUnits M_SEC
CPU cpu0
Priority 5

ModuleFileId Excavator
ModuleId 5
Library USER
TemporalConstraints NONDEFINED

ModuleFileId Check_Atr
ModuleId 3
Library USER
TemporalConstraints NONDEFINED

Connexions 3
1 5 2 1 2 1 
DRIVER

2 4 1 1 5 1 
DRIVER

3 2 3 1 3 1 
EVENT


