ModuleType ALGORITHMICAL
ModuleName timeout
IncludeFile inc.h
VariableFile var.c
InitialisationFile init.c
CalculationFile compute.c
EndFile end.c
TemporalConstraints NONDEFINED
NbrPortVariable 0
NbrPortEvent 1
PortName endtime
PortId 1
PortType OUTPUT
EventName endtime
EventType INNEROUTPUT
NbrPortParam 0

